Process
…
We will first merge all data sets into a larger one and then run the skim_without_charts() function to the new dataset.

3.1 - Combining all data.

all_trip_data <- bind_rows(trip_data_202201, trip_data_202112, trip_data_202111, trip_data_202110, 
                           trip_data_202109, trip_data_202108, trip_data_202107, trip_data_202106, 
                           trip_data_202105, trip_data_202104, trip_data_202103, trip_data_202102)
skim_without_charts(all_trip_data)

3.2 - Cleaning column names.

clean_names(all_trip_data)

# A tibble: 5,601,999 x 13
   ride_id          rideable_type started_at          ended_at           
   <chr>            <chr>         <dttm>              <dttm>             
 1 C2F7DD78E82EC875 electric_bike 2022-01-13 11:59:47 2022-01-13 12:02:44
 2 A6CF8980A652D272 electric_bike 2022-01-10 08:41:56 2022-01-10 08:46:17
 3 BD0F91DFF741C66D classic_bike  2022-01-25 04:53:40 2022-01-25 04:58:01
 4 CBB80ED419105406 classic_bike  2022-01-04 00:18:04 2022-01-04 00:33:00
 5 DDC963BFDDA51EEA classic_bike  2022-01-20 01:31:10 2022-01-20 01:37:12
 6 A39C6F6CC0586C0B classic_bike  2022-01-11 18:48:09 2022-01-11 18:51:31
 7 BDC4AB637EDF981B classic_bike  2022-01-30 18:32:52 2022-01-30 18:49:26
 8 81751A3186E59A6B classic_bike  2022-01-22 12:20:02 2022-01-22 12:32:06
 9 154222B86A338ABD electric_bike 2022-01-17 07:34:41 2022-01-17 08:00:08
10 72DC25B2DD467EEF classic_bike  2022-01-28 15:27:53 2022-01-28 15:35:16
# ... with 5,601,989 more rows, and 9 more variables: start_station_name <chr>,
#   start_station_id <chr>, end_station_name <chr>, end_station_id <chr>,
#   start_lat <dbl>, start_lng <dbl>, end_lat <dbl>, end_lng <dbl>,
#   member_casual <chr>
…
